<svg xmlns="http://www.w3.org/2000/svg" viewBox="0 0 8 8">
  <path d="M .5 .5 h 2 l 1 1 h 3 v 1 h 1 l -1 5 h -6 v -7 M .5 7.5 l 1 -5 h 5" fill="transparent" stroke="currentColor" stroke-width=".5" stroke-linejoin="round" stroke-linecap="round" />
</svg>
