<?xml version="1.0" encoding="utf-8"?>
<svg version="1.2" xmlns="http://www.w3.org/2000/svg" viewBox="0 0 16 16">
<circle cx="2" cy="2" r="1"/>
<circle cx="8" cy="2" r="1"/>
<circle cx="14" cy="2" r="1"/>
<circle cx="2" cy="8" r="1"/>
<circle cx="8" cy="8" r="1"/>
<circle cx="14" cy="8" r="1"/>
<circle cx="2" cy="14" r="1"/>
<circle cx="8" cy="14" r="1"/>
<circle cx="14" cy="14" r="1"/>
</svg>