<svg xmlns="http://www.w3.org/2000/svg" viewBox="0 0 8 8">
  <path d="M 1 1 H 3 L 4 2 L 7 2 V 7 H 1 Z M 1 4 H 3.5 M 2.5 3 L 3.5 4 L 2.5 5" fill="transparent" stroke="currentColor" stroke-width=".5" stroke-linejoin="round" stroke-linecap="round" />
</svg>
